	
Response body
Download
{
  "items": [
    {
      "id": 1,
      "name": "Handmade Cotton Towels",
      "description": "Eos cum doloremque reprehenderit consequatur modi veritatis.",
      "rating": 5,
      "image": "https://picsum.photos/640/480?random=1412",
      "promo": true,
      "active": false
    },
    {
      "id": 2,
      "name": "Generic Soft Pants",
      "description": "Quo quo hic exercitationem provident.",
      "rating": 3,
      "image": "https://picsum.photos/640/480?random=812",
      "promo": true,
      "active": true
    },
    {
      "id": 4,
      "name": "Practical Concrete Car",
      "description": "Voluptatum itaque aspernatur.",
      "rating": 3,
      "image": "https://picsum.photos/640/480?random=6315",
      "promo": true,
      "active": false
    },
    {
      "id": 5,
      "name": "Practical Steel Sausages",
      "description": "Veniam est deserunt minus voluptate voluptatibus.",
      "rating": 5,
      "image": "https://picsum.photos/640/480?random=8629",
      "promo": true,
      "active": false
    },
    {
      "id": 6,
      "name": "Generic Concrete Pants",
      "description": "Architecto aut illo eos est.",
      "rating": 1,
      "image": "https://picsum.photos/640/480?random=2050",
      "promo": true,
      "active": false
    },
    {
      "id": 10,
      "name": "Sleek Steel Keyboard",
      "description": "Expedita repudiandae et veniam.",
      "rating": 3,
      "image": "https://picsum.photos/640/480?random=4566",
      "promo": true,
      "active": false
    },
    {
      "id": 11,
      "name": "Practical Wooden Shoes",
      "description": "Quos enim vel dignissimos architecto explicabo vitae sint esse.",
      "rating": 2,
      "image": "https://picsum.photos/640/480?random=4631",
      "promo": true,
      "active": true
    },
    {
      "id": 12,
      "name": "Generic Frozen Ball",
      "description": "Suscipit delectus culpa pariatur.",
      "rating": 3,
      "image": "https://picsum.photos/640/480?random=8449",
      "promo": true,
      "active": true
    }
  ],
  "itemCount": 8,
  "totalItems": 486,
  "pageCount": 61,
  "next": "https://join-tsh-api-staging.herokuapp.com/product?page=2&limit=8",
  "previous": ""
}